Fire-Plant Invasions-TBD
…
##  [23] FALSE FALSE FALSE FALSE FALSE FALSE FALSE FALSE FALSE FALSE FALSE
##  [34] FALSE FALSE FALSE FALSE FALSE FALSE FALSE FALSE FALSE FALSE FALSE
##  [45] FALSE FALSE FALSE FALSE FALSE FALSE FALSE FALSE FALSE FALSE FALSE
##  [56] FALSE FALSE FALSE FALSE FALSE FALSE FALSE FALSE FALSE FALSE FALSE
##  [67] FALSE FALSE FALSE FALSE FALSE FALSE FALSE FALSE FALSE FALSE FALSE
##  [78] FALSE FALSE FALSE FALSE FALSE FALSE FALSE FALSE FALSE FALSE FALSE
##  [89] FALSE FALSE FALSE FALSE FALSE FALSE FALSE FALSE FALSE FALSE FALSE
## [100] FALSE FALSE FALSE FALSE FALSE FALSE FALSE FALSE FALSE FALSE FALSE
## [111] FALSE FALSE  TRUE FALSE FALSE FALSE FALSE FALSE FALSE FALSE FALSE
## [122] FALSE FALSE FALSE FALSE FALSE FALSE FALSE FALSE FALSE FALSE FALSE
## [133] FALSE FALSE FALSE FALSE FALSE FALSE FALSE FALSE FALSE FALSE FALSE
## [144] FALSE FALSE FALSE FALSE FALSE FALSE FALSE FALSE FALSE FALSE FALSE
## [155] FALSE FALSE FALSE FALSE

## # A tibble: 273 x 21
##    Order installation date       plot_id transect_id quadrat_id veg_id    
##    <int> <chr>        <date>     <chr>   <chr>       <chr>      <chr>     
##  1  2037 blanding     2018-05-19 g1      north       w10        ghost gra…
##  2  2046 blanding     2018-05-19 g1      south       s10        ghost gra…
##  3  2053 blanding     2018-05-19 g1      east        e10        ghost gra…
##  4  2062 blanding     2018-05-19 g1      west        w10        forb 11:4…
##  5  2064 blanding     2018-05-19 g1      west        w10        ghost gra…
##  6  2110 blanding     2018-05-24 n1      east        e10        raco, (ma…
##  7  2183 blanding     2018-05-17 h1      west        w10        forb 1:05…
##  8  2190 blanding     2018-05-15 c1      north       n10        forb 11:4…
##  9  2202 blanding     2018-05-15 c1      west        w10        forb 11:4…
## 10  2208 blanding     2018-05-15 c1      east        e10        em 10:32  
## # ... with 263 more rows, and 14 more variables: pct_cover <dbl>,
## #   ht_under50cm <int>, ht50_100cm <int>, ht_over100cm <int>,
## #   `1cm_wg_stems` <chr>, Notes <chr>, scientific_name <chr>,
## #   functional_group <chr>, Genus <chr>, Species <chr>, Status <chr>,
## #   functional_group__1 <chr>, pid <chr>, visit_year <dbl>
…
##  [1] FALSE FALSE FALSE FALSE FALSE FALSE FALSE FALSE  TRUE FALSE FALSE

## # A tibble: 286 x 21
##    Order installation date       plot_id transect_id quadrat_id veg_id    
##    <int> <chr>        <date>     <chr>   <chr>       <chr>      <chr>     
##  1  2037 blanding     2018-05-19 g1      north       w10        ghost gra…
##  2  2046 blanding     2018-05-19 g1      south       s10        ghost gra…
##  3  2053 blanding     2018-05-19 g1      east        e10        ghost gra…
##  4  2062 blanding     2018-05-19 g1      west        w10        forb 11:4…
##  5  2064 blanding     2018-05-19 g1      west        w10        ghost gra…
##  6  2110 blanding     2018-05-24 n1      east        e10        raco, (ma…
##  7  2183 blanding     2018-05-17 h1      west        w10        forb 1:05…
##  8  2190 blanding     2018-05-15 c1      north       n10        forb 11:4…
##  9  2202 blanding     2018-05-15 c1      west        w10        forb 11:4…
## 10  2208 blanding     2018-05-15 c1      east        e10        em 10:32  
## # ... with 276 more rows, and 14 more variables: pct_cover <dbl>,
## #   ht_under50cm <int>, ht50_100cm <int>, ht_over100cm <int>,
## #   `1cm_wg_stems` <chr>, Notes <chr>, scientific_name <chr>,
## #   functional_group <chr>, Genus <chr>, Species <chr>, Status <chr>,
## #   functional_group__1 <chr>, pid <chr>, visit_year <dbl>
…
